515244 131087
521268 134969
746573 124145
339917 727803
969996 306215
321241 492896
723019 151904
904604 893584
576119 11327
831384 527784
770531 225845
888509 783358
829271 704190
783775 933875
233253 577985
331207 639111
742796 750942
319706 692226
337401 88690
262561 577786
370670 954552
807607 336368
455737 221828
327169 344165
707262 385212
395042 28003
4137 74771
247542 500123
380715 889102
666967 466993
616826 584620
209615 326353
571222 94695
377697 166723
61947 584969
730447 90660
438431 304683
27501 8727
647067 439417
317407 932219
701105 493574
306042 627202
812076 531927
651372 703434
122901 895726
647887 523013
946918 472932
277436 463833
74251 409392
182655 583187
43518 445780
522474 893872
535590 441781
660402 307896
608690 289314
597481 851572
127432 303172
477044 7448
259453 858364
619602 730514
458098 212049
638737 38821
485741 361223
32467 131350
63026 405865
53380 51834
573155 627495
430497 176298
576731 765802
419392 942079
184752 179089
455663 183217
493442 618734
102358 667934
823663 822555
668396 270299
494275 472649
816290 952662
300420 55790
983916 12362
519512 573153
451786 899415
694907 210435
137852 198218
638482 219800
101337 368683
477935 226720
350470 204905
199326 889748
623341 965468
239560 678182
63497 310053
805942 333197
464736 628524
5406 149226
802256 597459
900022 418606
888422 374978
367597 844931
439274 741139
729117 403318
634569 590103
356333 158651
922320 123822
384712 706662
451534 694301
342189 407375
694635 782155
296263 995037
395618 909368
609100 685735
995776 376651
736257 530262
502207 59598
528976 292707
504245 915474
399696 162089
385327 217060
979371 832202
865981 69154
937930 554029
184895 380383
425873 679722
34607 623839
658372 534110
739459 124334
459404 616057
215620 82464
792095 998208
865426 564625
835043 234218
670742 147959
874813 606757
10541 944726
749483 515316
638160 681085
122277 794623
523005 112096
706733 98971
28962 14396
923266 203656
636369 549871
753558 859108
891152 716245
537965 573302
926279 560433
220779 658584
526535 889842
447482 578296
549282 601655
344859 504892
399394 696403
303239 479652
358799 306862
462613 71405
400723 194378
593786 467073
993134 154206
943044 161903
749216 739441
595552 712685
431758 654252
101660 260737
820984 508223
668888 860555
119531 599029
95513 530269
437950 697191
848750 404672
693611 552886
813077 37182
561275 886280
617459 640157
959472 460821
137316 910248
141679 679442
725356 626975
571248 882499
537606 562798
391263 37662
809035 88259
580619 632072
665463 274841
874414 764985
780621 342595
557267 323903
573790 952524
301953 710912
134557 39108
285105 928770
358775 840779
197381 733610
321392 79817
93935 852192
249110 747571
434206 535581
140754 846899
78851 809911
963117 171340
400259 225537
601059 872789
842967 995576
753639 916755
245545 832879
951582 111030
178436 927767
701328 646052
953704 665487
647328 488343
433024 214957
745744 561267
746701 630694
520510 260031
31621 568053
471534 776859
313074 384082
827130 758668
888086 54092
74907 115227
548267 26962
731151 301687
717177 448496
509279 67754
949990 392487
397725 366164
533443 589099
794645 157340
257591 231759
243279 668249
473365 957965
404532 753037
229517 620926
976446 429522
293981 825963
287295 180443
780293 578772
96907 315363
269169 119277
856178 244113
89230 591409
130334 525766
122836 937735
404593 155169
950871 302971
698144 675568
264487 5895
680988 841013
735554 861875
117772 384643
880753 271969
958671 498299
700531 956745
214952 472372
219306 399147
