603865 556053
319765 958882
199261 235717
853925 840878
226251 733814
58923 735977
176533 91572
101176 971221
771941 869205
429196 322190
834659 192872
829294 584080
709670 105292
403272 932080
541480 714153
47663 469132
474662 737511
714787 618048
963529 488692
394021 591305
749127 461849
326206 458158
631379 675884
295708 757875
865497 346272
393394 573582
656103 935555
320060 284143
16257 77240
73198 355157
991795 712821
641739 215578
368838 144422
516375 245032
881508 863024
16643 959335
25319 684563
575370 639906
899359 334
990136 860900
55836 278848
926495 555211
797934 10771
369095 698489
440828 862039
685632 9457
749438 432036
974277 236821
225864 681391
987988 938068
980486 348468
277141 828481
266492 82662
930207 934295
681712 106725
333403 489599
215225 200309
815723 823745
370588 486909
321329 439569
551827 729338
700961 33632
794595 981913
700906 254855
321869 772505
645616 33227
291022 772098
875877 240820
131881 764778
160096 849519
407995 67658
338268 170049
725069 466610
610586 431254
868647 124960
281035 579020
195921 528141
108629 112408
302178 467756
812463 8391
634456 911696
883608 304163
548628 560240
353159 269339
924509 767639
374985 172687
882619 13206
783969 693193
234828 281067
936328 350431
58275 39991
702205 978402
156592 871701
608472 837816
282103 428426
156804 267741
533259 373247
542259 53281
220639 405730
73578 697709
751666 326756
145322 952848
201362 512174
454625 514850
342695 77134
205700 724410
953063 172977
209957 307035
991894 536035
500835 407468
930906 349809
149342 483826
832998 634704
184644 820954
746357 385052
90442 140791
393253 757025
540306 545183
380646 861126
65978 975092
826991 508428
429259 155324
841606 113095
926192 126608
383031 431354
868744 388505
340798 901611
291314 328966
216019 536813
146151 927648
87261 527221
62865 413914
383694 704364
651373 336978
194042 10802
560997 353086
865245 54818
65955 716655
552731 57001
15172 191649
108927 337536
773090 28877
610320 143032
675529 697784
411201 237126
230248 777776
412271 373117
622105 323741
389823 982422
21730 656495
310690 892079
347533 594303
888165 460533
418346 679339
490207 938416
342214 644666
372142 942419
137964 419450
782143 322451
931252 668329
846768 295035
838927 224383
551869 221882
413345 571441
198502 297430
94283 252998
826879 949428
650709 886122
603431 694422
268288 514378
405648 278201
587962 321739
516229 914482
35601 680848
161169 583267
564630 904149
510665 353878
532312 12407
73659 173043
783840 962114
471200 728036
989647 790925
976301 372453
860267 684028
542688 249731
52816 795972
342104 726781
61968 979723
962418 849907
558055 659967
855366 245523
907414 491863
459941 132654
745459 319947
277603 420103
258868 114944
532181 508376
887419 433747
122884 616215
411849 240133
661893 735319
599700 881749
860718 462643
135567 969832
961562 808925
538539 136363
391881 592654
821039 692345
938166 983434
81240 840097
191861 471809
620290 806030
184524 52937
212299 766083
196967 520823
505115 729124
268222 45791
206439 686887
907457 66625
776881 298262
14911 273233
812327 951605
215002 377985
671780 247740
314204 560702
588787 369468
20734 471721
902604 731316
767568 238339
726265 659210
979958 737829
136968 929972
882601 257940
395677 122207
796607 800686
337394 342734
409672 471408
830475 362484
867689 756202
989389 516475
116098 360606
781763 228877
713105 837074
98933 3256
910534 225017
856339 635906
