333000 444065 449
536176 509668 470
336184 630142 509
886 788522 509
710594 220844 509
869369 208047 525
485725 314782 449
671736 707124 504
132624 119101 344
895498 541491 525
472443 484750 413
298357 932049 525
129008 796053 509
614941 794507 509
544993 577510 452
433106 476898 444
318397 146813 443
325538 727847 509
334266 611460 470
836074 471835 509
483957 930549 525
859466 362067 525
250983 688232 509
501028 813181 509
693719 658308 442
221284 720516 509
133366 330033 443
934221 42058 525
549177 637089 509
947490 110661 525
484947 410936 444
482261 43446 449
597026 801344 509
375044 710923 509
244689 216360 443
972675 814846 525
420726 369277 449
14588 194264 383
421538 993899 525
485686 686707 509
142576 298159 443
310618 955213 525
812141 292953 509
80146 821906 509
117030 47770 354
338057 552991 470
812004 758008 468
70492 352749 443
585298 580069 434
726276 769782 468
836520 508629 509
110900 380183 443
606363 742067 509
403874 983193 525
372769 971539 525
575337 948784 525
719616 21923 509
816643 951250 525
421129 93870 449
962639 548696 525
80776 98191 333
231388 646224 509
975522 206801 525
36799 910715 525
114350 500455 449
86441 299441 443
400223 968345 525
355837 731629 509
994335 417447 525
928514 514772 525
963347 237507 525
876043 357602 525
281811 426064 449
113129 67199 354
882039 515733 525
541334 613455 452
272627 674301 509
891245 265531 525
324203 548167 470
647534 500111 509
607289 997411 525
337557 276062 389
365854 967609 525
688052 211121 509
195926 551121 470
234968 841263 525
26083 858748 525
370108 553182 470
244889 24217 443
243555 124087 443
966614 308312 525
637684 385687 509
538196 101221 470
242546 829017 509
863393 693427 525
152613 169770 383
193749 163408 365
329528 179788 443
766578 970862 525
510156 412508 444
367110 442946 449
231256 850837 525
816141 533184 509
768670 540138 509
559606 182802 470
300030 480912 449
698863 934500 525
684585 614679 509
187585 754756 509
417142 899202 525
682540 99139 509
977169 293484 525
491062 661522 509
547443 63564 470
924651 384043 525
649406 418467 509
534239 435605 470
888315 668804 525
389418 96256 443
896601 641113 525
78935 32586 351
184805 525988 470
195114 630174 509
774407 327995 509
573977 170596 470
959298 980587 458
440368 650380 509
149723 110314 375
200539 402982 443
336674 709276 509
480263 301185 449
852665 560514 525
393495 368154 436
476306 476146 276
679562 223390 509
443435 533930 470
942930 527359 525
357348 770729 509
524946 301879 470
232218 738298 509
392480 137677 443
389177 204760 443
776785 993363 525
824823 187560 509
176337 520775 470
712199 18213 509
653961 539489 509
523609 138147 470
429589 798866 509
790027 54140 509
42766 847313 525
799123 734182 468
719009 986027 525
976236 264275 525
474139 830219 509
142104 645271 509
3174 404366 443
866555 562953 525
584191 386851 470
856011 997441 507
576885 240320 470
454284 913770 525
99411 476280 449
129949 233915 443
352809 463057 449
728057 273784 509
228819 663179 509
503467 643734 509
961245 346623 525
636636 838134 525
934764 825000 525
24554 854938 525
243363 841827 525
392993 512113 470
472329 465468 413
880374 575211 525
864615 737902 525
671919 296888 509
633350 622670 509
318816 884766 525
468174 795971 509
802992 513632 509
308458 256191 407
278525 547888 470
770147 416441 509
726915 390102 509
668563 341862 509
138569 195806 383
341515 479363 449
504446 257541 449
161124 328320 443
80438 427426 449
116481 155656 375
458524 555243 470
318098 924427 525
803395 847500 525
134329 636617 509
152102 883127 525
107924 798191 509
141219 441982 449
34999 642100 509
372651 898070 525
55890 771993 509
373677 363355 392
762079 255150 509
455198 798781 509
297854 234552 407
469166 805429 509
179029 123014 383
891019 848753 445
844416 712370 525
846602 740868 525
671721 436609 509
558578 469066 470
314368 902781 525
87630 665879 509
803534 640575 504
562581 453893 470
109479 965890 525
618718 481406 470
922488 850725 476
303874 741097 509
108759 991538 525
919656 351295 525
760923 36079 509
246009 627227 509
416110 939045 525
278280 127709 443
125357 281858 443
811286 494857 509
229117 264065 443
672734 509594 509
463534 899536 525
727613 930323 525
922847 645169 525
82081 546563 470
180555 990349 525
388748 688659 509
632692 632484 279
27802 327341 443
463757 497375 426
397697 825613 509
757442 425938 509
824798 317193 509
405989 491297 449
840807 478137 525
985821 523303 525
524912 443586 470
822822 61321 509
208965 916842 525
930135 606478 525
917991 720572 525
603196 590682 403
591482 392128 470
875 177245 383
