965185 869961 507
558422 464448 470
227582 150257 386
481383 490877 382
981994 255124 525
751771 582157 509
649983 196424 509
128296 287910 443
917826 306616 525
95591 998252 525
289525 987247 525
415630 526799 470
487253 315093 449
778324 609870 509
878382 425859 525
22527 871793 525
174937 835014 509
69060 218883 386
843076 655250 525
400234 290657 441
879487 958452 507
588444 994033 525
101824 355431 443
332154 278694 389
839410 825163 525
755097 186101 509
263481 730248 509
135796 620800 470
550639 588370 434
857249 94947 525
722582 936139 525
310857 107353 443
264447 685349 509
54700 557205 470
61326 321044 443
540917 706726 509
213841 341171 443
343717 32350 443
307830 318224 384
47537 52765 340
906247 592205 525
210005 274617 443
781786 515944 509
960660 454209 525
798530 80678 509
154048 375022 443
791360 154307 509
593504 174413 470
600780 361246 470
623052 418056 470
692122 670436 442
166414 475721 449
505231 939657 525
853545 91295 525
297870 322049 384
524569 426944 470
890250 335494 525
961922 607392 525
589473 651809 509
449540 787936 509
868753 236201 525
516514 812345 509
567095 899514 525
867939 306744 525
40940 437185 449
891498 787552 525
361037 41276 443
622644 87098 470
973116 932679 507
430 644697 509
584195 476934 470
205501 286164 443
632796 454424 509
611461 830796 509
112822 288414 443
212476 497221 449
136816 277561 443
794037 507733 509
329433 27702 443
375692 724043 509
262255 908431 525
196199 856434 525
407037 913142 525
659472 940272 525
952493 676920 525
121142 497810 449
64369 750759 509
920008 514800 525
322767 862551 525
993539 186697 525
777886 540554 509
904692 653816 525
118200 87556 354
210177 721254 509
156226 322324 443
364306 55317 443
812834 502603 509
125265 93622 354
776933 620515 509
651640 43781 509
786690 222646 509
779874 624190 509
552450 512784 452
730647 530386 509
691 758926 509
901302 802669 525
144182 746698 509
681905 4858 509
72830 858400 525
641089 441681 509
831878 286680 509
439542 655697 509
230809 703556 509
997115 481870 525
636955 875623 525
242802 76457 443
950193 462934 525
178471 750136 509
513564 989536 525
504498 516475 470
593940 308225 470
489581 852324 525
603370 358707 470
194914 470352 449
13502 193630 383
194405 949889 525
58125 757728 509
923777 132237 525
245165 213501 443
993042 388929 525
529303 457249 470
779141 924415 525
344707 59242 443
109718 227033 386
26802 924840 525
333309 290474 384
412752 345871 449
145339 126339 375
967671 164774 525
553093 623353 447
882519 269893 525
137067 588206 470
980640 992479 427
50215 882172 525
361859 573276 470
681878 483831 509
545591 115269 470
794944 703741 504
552026 982303 525
608578 833819 509
54843 185444 383
398508 565468 470
767673 642243 504
587027 348922 470
685822 259367 509
594616 711649 509
575288 981523 525
188623 205096 360
540579 431516 470
464451 379696 449
417114 905463 525
263505 417 443
642208 575423 509
362476 357209 410
924119 818914 525
686582 786344 504
996467 666401 525
89118 119929 354
655066 749471 504
548113 844996 525
331199 253800 407
514976 680944 509
844898 60022 525
342688 619823 470
181371 348110 443
750921 793207 468
534584 107640 470
38928 103280 351
230194 585011 470
748772 33541 509
653887 585358 509
263497 40743 443
642904 69185 509
642829 472721 509
510293 773173 509
57960 357479 443
863381 927078 476
72137 660164 509
605806 426453 470
222393 258592 443
13595 101283 351
277747 951719 525
977962 140799 525
110337 414334 449
123774 774408 509
897423 949554 507
966233 243377 525
802637 198710 509
648594 469637 509
571195 697712 509
605879 913843 525
319804 121424 443
213004 69251 383
183430 667488 509
917599 661743 525
348681 649907 509
396753 341963 441
841978 309171 525
613084 47707 470
969786 255598 525
785649 223708 509
667855 412239 509
390382 253389 441
687249 221900 509
375842 909330 525
226190 435139 449
571211 163582 470
684454 678720 380
211755 52184 383
485607 778520 509
767330 146665 509
294608 160753 443
884076 903759 445
715631 209098 509
617732 88587 470
309191 839563 525
709131 922370 525
20413 81082 351
477803 899809 525
727139 348882 509
271464 191925 443
251178 667859 509
863969 10174 525
84098 213277 383
628340 833983 504
570826 564591 421
622679 63654 470
909558 214957 525
316378 56355 443
998198 880548 507
