1 10
100 200
201 210
900 1000
289383 930886
692777 636915
747793 238335
885386 760492
516649 641421
202362 490027
368690 520059
897763 513926
180540 383426
89172 455736
5211 595368
702567 956429
465782 21530
722862 665123
174067 703135
513929 979802
634022 723058
133069 898167
961393 18456
175011 478042
176229 377373
484421 544919
413784 898537
575198 594324
798315 664370
566413 803526
776091 268980
759956 241873
806862 999170
906996 497281
702305 420925
477084 336327
660336 126505
750846 621729
661313 925857
616124 353895
819582 100545
898814 233367
515434 990364
344043 313750
171087 426808
117276 947178
695788 393584
705403 502651
392754 612399
999932 95060
549676 993368
947739 210012
636226 698586
348094 297539
140795 480570
651434 960378
97467 66601
710097 612902
573317 570492
926652 260756
997301 560280
724286 209441
953865 429689
228444 346619
558440 744729
958031 108117
738097 905771
834481 890675
120709 698927
704567 777856
179497 872353
254586 276965
455306 964683
406219 28624
51528 332871
805732 48829
409503 530019
258270 363368
959708 486715
226340 518149
747796 700723
142618 2245
122846 493451
892921 243555
192379 597488
537764 888228
469841 792350
165193 441500
757034 87764
470124 324914
936987 275856
373743 346491
322227 148365
709859 281936
151432 452551
316437 899228
153275 975407
901474 276121
468858 794395
36029 661237
908235 573793
65818 894428
366143 231011
335928 639529
318776 322404
964443 255763
114613 854538
118606 436840
2904 344818
235128 670688
797369 67917
569917 466996
43324 987743
259470 512183
298490 295499
689772 206725
385644 755590
617505 268139
502954 469786
907669 338082
308542 388464
110197 939507
759355 228804
376348 278611
573622 127828
949299 887343
195746 35568
354340 755422
23311 613810
267605 321801
425661 473730
44878 811305
229320 178736
79444 248626
648522 503465
586708 473416
408282 213258
412924 167637
442062 305624
962600 532036
433452 911899
419379 145550
947468 290071
900973 487131
903881 684930
808933 845894
158660 370163
657199 387981
548899 252996
152959 713773
272813 739668
187190 681095
952926 116466
365084 911340
422090 327684
443376 855542
755936 379107
517445 219756
669179 418418
706887 89412
103348 32172
451659 262009
402336 625210
166342 467587
878206 319301
697713 667372
575321 401255
864819 44599
517721 229904
955939 939811
73940 915667
311705 346228
811127 829150
565984 996658
763920 789224
602422 867269
821396 54081
645630 740084
679292 811972
207672 73850
647625 905385
741222 739299
306640 606042
783898 340713
352298 256190
280524 942590
688209 108581
288819 499336
937732 371155
495994 218004
160379 614769
85273 981776
668850 247255
721860 348142
575579 445884
421993 223205
867621 679567
962504 690613
801961 262754
31326 154259
518944 828202
613202 723506
936784 902021
222842 390868
789528 235189
608872 949908
849958 210498
448036 518808
457753 686248
383303 33333
132133 321648
772890 999754
517567 251746
690368 319529
514500 238046
473788 549797
66249 86990
273303 3033
505363 12497
910253 294892
247686 519125
761152 613996
245975 209188
649157 703729
895436 32460
253414 543921
870460 26304
60028 388027
278050 266748
707556 308902
504794 697697
858699 571043
301039 132002
90428 806403
144500 681
617647 908538
36159 895151
522535 282134
104339 171692
502215 516127
720504 755629
60049 590964
298285 636429
495343 576335
903177 202900
885238 407971
416949 260289
495367 717988
392292 585795
40743 53144
102829 658390
961682 655340
553541 569
453826 174232
172261 956042
690360 409117
228023 266761
81 526309
903190 495425
618996 806367
214677 504234
730690 631626
764524 226057
349614 673168
328205 390358
726312 947386
565100 204346
602726 634994
204916 56552
325578 893529
528946 532290
302647 756970
799051 819080
799631 218593
830857 418627
541312 561886
439214 788355
193512 720090
14412 59479
909610 858969
966189 152274
806355 47641
356620 925433
198987 77888
498338 524566
487770 27284
56856 790417
300606 372260
125849 100237
107205 473059
35217 648518
34945 990783
436873 228458
710873 967637
804289 620483
826607 770478
772757 149314
334471 645729
591100 533459
723618 89438
