656534 305687 509
399120 361376 436
481965 305528 449
242389 251782 350
585813 635924 509
376666 792489 509
285495 215193 443
55298 595820 470
591749 208684 470
980154 789730 525
561625 507181 470
420985 549225 470
218861 862093 525
755270 537780 509
700763 881468 525
781536 882422 525
814227 846359 525
125652 683392 509
219673 191288 386
40119 231708 443
486928 230721 449
104238 141881 354
553546 584435 434
576349 954392 525
993923 755753 525
899474 539243 525
748411 859576 525
102683 984173 525
595040 742750 509
324504 809966 509
576762 120342 470
436097 630056 509
804008 35624 509
800635 665056 504
272351 688647 509
599067 323805 470
961245 191298 525
588333 554887 434
665816 797896 504
531833 523732 408
295589 809045 509
629297 838980 525
156013 453248 449
643402 538323 509
131960 718260 509
212148 796696 509
860174 838929 419
604518 264043 470
941432 678502 525
462633 592477 470
945563 581131 525
880755 63376 525
852795 68599 525
131081 820582 509
445955 657404 509
829763 979280 525
554258 280094 470
294344 678507 509
617827 839618 525
445851 571044 470
581959 363911 470
165504 749956 509
747937 698217 504
149510 836129 509
463650 462083 369
756256 45448 509
853689 374591 525
809780 992104 525
547308 377687 470
683774 739741 504
638058 323329 509
79582 107853 354
583820 45569 470
564422 894307 525
413127 15587 449
308861 629995 509
152763 808013 509
624339 748746 509
953551 442855 525
298667 281288 389
718805 411857 509
449675 978093 525
708699 750400 424
263864 707046 509
444273 99344 449
492441 95485 449
611632 931400 525
884480 376971 525
999580 812473 525
49656 517553 470
569279 16511 470
483869 379996 449
769426 569023 509
142780 954284 525
338386 613647 470
330061 28694 443
559129 637744 509
802726 240424 509
785585 736836 468
126200 923962 525
909485 481650 525
851706 417779 525
456329 7014 449
531761 719348 509
541169 805191 509
179976 330276 443
543046 572210 452
810723 839228 525
264131 646226 509
55812 117556 354
821836 473261 509
894511 846947 445
510343 308732 449
233394 638404 509
150594 434405 449
743795 469528 509
608780 113107 470
832038 621364 509
150860 839396 525
720468 786697 468
879693 382680 525
749577 260125 509
310774 188907 443
701390 623740 509
893248 6135 525
264378 119875 443
271836 792929 509
540204 333181 470
69922 158908 383
589409 51577 470
97996 770006 509
872065 238880 525
793401 340842 509
161829 70470 383
545917 638510 509
181703 951316 525
857332 162617 525
85737 683289 509
288730 751803 509
106213 34311 351
573998 626567 509
900356 641516 525
156258 155914 383
296352 979278 525
273934 471730 449
575227 746673 509
348337 231442 441
285383 230116 443
580925 226602 470
709826 205920 509
405065 313639 441
975384 858121 507
486858 155954 449
185878 18880 383
692947 561095 509
668083 76814 509
137329 345559 443
961646 283241 525
98023 632546 509
782239 493208 509
231906 733387 509
834052 618020 509
489827 775228 509
785741 910673 525
80214 725197 509
805805 202056 509
112683 209575 383
792967 839468 525
729854 580923 509
951736 502566 525
193474 313582 443
201727 998549 525
502201 350108 449
395370 484538 449
91843 940940 525
471009 447982 444
471177 724105 509
890507 137792 525
948565 345979 525
79525 493775 449
153831 633594 509
942482 828167 525
115159 595304 470
647313 74648 509
588614 553404 434
947808 605588 525
248886 917547 525
664142 751796 504
840653 966444 507
573802 164009 470
566481 39878 470
757918 97886 509
606912 599920 403
127827 43255 354
642993 400400 509
838868 582432 525
196969 844247 525
802678 714522 468
458426 251251 449
168279 178968 347
505711 425586 444
226995 523722 470
530047 60076 470
573352 576716 359
370892 436402 449
754570 374677 509
791279 163135 509
848022 558084 525
538995 27958 470
887718 850525 445
727980 826994 468
481003 82628 449
306092 480331 449
593057 635441 509
910228 490990 525
369190 196034 443
969033 471661 525
230124 144113 386
148272 385875 443
795211 693242 504
147485 544805 470
761470 869091 525
247888 26972 443
86425 793848 509
394920 259754 441
928377 611754 525
674310 443058 509
813171 616191 509
806328 10745 509
308658 102561 443
546604 150706 470
986705 202838 525
619834 556494 447
43698 450756 449
896265 413141 525
620364 151739 470
740172 864710 525
375564 156903 443
710019 732547 411
156010 207586 383
248974 12385 443
395436 310911 441
393904 562263 470
943428 327505 525
499847 958556 525
212203 745019 509
454717 222298 449
394574 84084 443
951018 578814 525
812811 36818 509
217867 839083 525
815140 165006 509
