869565 764263 525
499249 588048 470
743346 447419 509
560570 894707 525
998808 306891 525
565933 540134 452
792188 740046 468
913538 469751 525
28723 522982 470
72464 565910 470
867791 365759 525
427966 221746 449
921090 308025 525
91159 714812 509
71662 312016 443
110942 643411 509
494243 624717 470
12824 148220 375
775177 692099 504
837188 997659 525
389830 722242 509
358488 129666 443
874571 226758 525
924955 680187 525
695904 338463 509
293732 926684 525
498015 179652 449
424979 382893 449
100110 716543 509
375397 859933 525
520717 224491 470
279827 9 443
150090 507398 449
417140 545233 470
801025 914982 525
765647 460024 509
955704 117110 525
234613 750428 509
835026 198994 509
966441 352058 525
522147 600536 452
410292 663135 509
140722 561245 470
619535 819509 509
462931 638791 509
946894 308860 525
314013 168442 443
598141 969458 525
915356 572858 525
565564 245563 470
427623 673700 509
802874 831402 450
783201 323271 509
910867 501127 525
105441 261691 443
38283 834614 509
758592 384810 509
188403 230368 386
266630 871590 525
515187 31046 470
621759 911557 525
816028 49939 509
472258 578822 470
215736 246473 443
437330 133060 449
40791 321388 443
131282 439332 449
143448 746910 509
716665 462487 509
863989 176127 525
233728 767892 509
326643 51125 443
574488 885548 525
742633 220609 509
715148 611914 509
831661 593340 509
430535 672643 509
479960 592000 470
17035 138263 354
84155 932423 525
387548 139154 443
364392 188253 443
555037 282060 470
39441 97376 351
749369 871581 525
374524 357636 410
72670 836954 509
799018 891088 525
744866 428976 509
602257 343841 470
812663 509754 509
967206 820275 525
638526 746442 504
41021 943948 525
206128 836963 509
105276 98022 341
732866 170101 509
662596 187173 509
561623 344995 470
243940 18269 443
7807 855180 525
320932 464824 449
722177 916734 525
675175 604457 509
926170 626659 525
788839 67799 509
693250 89901 509
56755 343266 443
913778 486463 525
69289 864001 525
103895 8935 351
947473 928578 507
972107 555183 525
674419 271995 509
284351 702967 509
292868 847715 525
210326 30317 383
401913 418963 449
619147 592202 447
195631 344046 443
206094 369522 443
831180 863878 525
651190 354185 509
102516 255211 443
171387 374525 443
537785 674330 509
462322 839434 525
904843 742260 525
250900 393184 441
229636 123252 386
124788 805135 509
917999 408132 525
290081 958088 525
516930 774216 509
617361 604940 447
475068 645390 509
222712 781577 509
56918 62086 335
703511 804954 504
288996 457342 449
811729 993081 525
488768 716908 509
456176 198434 449
189911 332677 443
630947 160 509
608748 450046 470
917562 366742 525
418731 764865 509
913616 892653 476
816939 677521 504
336095 695314 509
316669 963472 525
476626 915831 525
854603 524983 525
35724 309418 443
571838 138711 470
919346 146942 525
875742 794299 525
83773 464840 449
567918 571255 377
96861 920714 525
91210 692943 509
294161 378926 441
709537 756476 424
375149 657623 509
774725 748162 468
667811 22690 509
30741 863428 525
628220 454802 509
656590 428314 509
996937 375789 525
13112 701617 509
371770 540255 470
335270 596670 470
663883 223420 509
869761 158988 525
415398 936017 525
273341 630367 509
986533 110753 525
141102 819401 509
626769 648367 416
908444 921767 476
166508 87008 383
590384 92016 470
905534 892597 401
782778 268874 509
613700 571220 434
114983 382919 443
730143 514613 509
287075 767079 509
520682 219848 470
61249 649811 509
586533 608756 403
17122 169729 383
133743 142255 344
2669 913411 525
506045 855570 525
181731 772902 509
519500 475879 470
29059 820373 509
745327 743489 318
457631 237237 449
260168 234668 368
676094 274405 509
808024 580135 509
750874 341443 509
583414 896275 525
679917 838361 525
620555 195509 470
165515 521926 470
887306 112256 525
647803 771266 504
468152 812056 509
