544316 456110 470
927359 474520 525
79837 580292 470
103207 871301 525
474842 211206 449
478955 300008 449
569385 233682 470
47593 86342 351
774193 773422 331
145210 302768 443
300343 383287 441
199922 920552 525
976097 82590 525
961375 530461 525
779044 848647 525
92931 27156 351
847166 621049 525
947927 471522 525
696892 540263 509
744188 125723 509
650899 596287 509
87801 181693 383
388124 8535 443
649806 422199 509
266333 803184 509
78692 439912 449
602694 806058 509
581683 26499 470
504647 476614 426
154424 85167 375
847421 102103 525
599011 406689 470
141985 213026 383
138477 270249 443
488534 961490 525
231899 124206 443
390756 153733 443
784289 792490 406
685071 201344 509
620620 340334 470
369678 696853 509
454675 718252 509
822527 81136 509
979582 241314 525
65735 897195 525
932688 411605 525
29455 207201 383
421357 292568 449
286571 580730 470
622594 848989 525
973700 685036 525
871450 386271 525
289269 200566 443
453248 300844 449
448187 613258 470
652350 169019 509
161799 376506 443
874514 82051 525
358114 751410 509
803812 998373 525
310286 648599 509
586575 859225 525
395653 68869 443
267220 155563 443
96399 548238 470
424378 767615 509
889202 458673 525
135112 329361 443
657375 23245 509
422102 711685 509
932465 112315 525
491948 908418 525
970089 891912 507
592387 899643 525
608684 912420 525
323588 232740 407
72664 340031 443
321216 477220 449
390012 80622 443
414476 544046 470
356122 687230 509
363267 206554 443
77213 320712 443
474754 349383 449
733968 252354 509
18326 510714 449
836805 107937 509
474103 151451 449
933713 741823 525
168738 841698 525
31219 549189 470
13773 189554 383
272954 321922 389
889450 732321 525
20546 554060 470
808929 847520 525
297153 599817 470
156899 944013 525
452568 262552 449
133268 507417 449
21525 901041 525
274110 998779 525
117839 444726 449
223124 89319 386
37654 83127 351
741154 597944 509
122514 145694 375
602524 986138 525
831486 991552 525
967328 709897 525
612807 919380 525
90396 986070 525
727744 149583 509
425941 869765 525
281211 924673 525
258562 554795 470
70116 582407 470
278793 881208 525
284571 192894 443
282476 107877 443
106040 136747 354
397266 590069 470
197674 684094 509
316 877616 525
135111 408988 443
813247 446147 509
392718 345863 441
37279 397476 443
796061 341277 509
28419 273863 443
258025 319122 407
51409 544620 470
657870 331443 509
212423 43559 383
673970 651826 442
492793 902997 525
369805 483006 449
679592 956726 525
821263 924706 525
766455 251086 509
24648 334837 443
837956 781366 525
769334 81163 509
749206 641836 504
695411 993984 525
42487 201916 383
662066 367606 509
882949 585341 525
208493 319358 443
904144 77585 525
605846 834081 509
496767 947700 525
24384 817333 509
661836 761034 504
731124 812784 468
589202 168694 470
112538 139430 349
585561 368401 470
895843 775471 525
609461 177949 470
936483 103014 525
422915 310070 449
542850 20159 470
415382 100720 449
267618 923806 525
665561 724960 504
106623 343723 443
926530 322303 525
775834 199148 509
471623 473018 338
90297 643020 509
915952 313492 525
126119 265166 443
640390 542269 509
840872 194469 525
300764 761105 509
820619 125394 509
581984 287497 470
401754 578574 470
211176 103900 383
533135 977442 525
145059 588428 470
139631 197602 383
941438 463603 525
286841 751306 509
470772 434998 444
637024 17615 509
911219 359761 525
718053 955256 525
987539 295510 525
905732 986068 507
580287 819445 509
406634 716166 509
995773 873000 507
10310 462452 449
161007 13751 383
520700 952648 525
643366 241226 509
159883 623683 470
449441 410478 418
989540 957619 458
384729 364065 423
129940 201562 383
84720 641839 509
537179 336728 470
399046 993779 525
59939 67101 335
557574 344095 470
121339 710408 509
85245 824186 509
378346 904148 525
550715 614848 434
156254 584776 470
994561 59437 525
549000 320854 470
280287 439137 449
677583 844959 525
78271 153512 375
852473 304463 525
454552 912977 525
426152 866449 525
226232 200437 386
876667 763032 525
883018 548843 525
932661 929031 370
847236 438903 525
587212 945666 525
