1 999999 525
999999 1 525
500 500 111
35 700 145
965430 2 525
47682 47682 53
378844 640239 509
251858 886040 525
566200 835260 509
56831 484334 449
965043 852001 507
707846 596463 509
708503 408352 509
432351 414419 418
321549 119884 443
953845 307728 525
144292 487864 449
786516 925190 525
549974 864743 525
389050 917599 525
346635 735632 509
269632 976692 525
504551 359923 449
426208 243836 449
846662 75237 525
759301 839159 525
653798 764360 504
529404 839897 525
381016 667750 509
983614 535925 525
473019 640849 509
475662 565973 470
785991 830560 468
968374 771392 525
571663 334558 470
993729 421512 525
353008 255406 441
658365 696114 442
40986 581644 470
122416 176433 383
379270 792649 509
876830 346517 525
120674 107069 349
646781 243494 509
468309 247754 449
693604 548245 509
584637 815790 509
766438 121531 509
823091 988550 525
116496 640347 509
966175 543720 525
149741 27724 375
134751 299700 443
998438 781273 525
338063 96077 443
22034 585342 470
331811 161594 443
812468 595282 509
41468 698891 509
608019 487167 470
826847 423071 509
468569 142536 449
500801 487120 426
778720 572853 509
515556 764687 509
837817 989331 507
162106 164447 339
880370 501515 525
76136 673779 509
623786 877277 525
186670 894782 525
430922 5749 449
220535 208306 386
298206 934051 525
71041 10047 340
285677 492378 449
701253 355567 509
719149 224905 509
836245 664589 504
7586 330766 443
588466 45810 470
702978 489056 509
46972 122376 354
149447 954699 525
678589 349609 509
972874 608984 525
852470 616851 525
342928 91514 443
893558 863702 445
473950 633861 509
837879 574641 525
679313 327667 509
65289 942754 525
122592 797332 509
882756 994501 507
927035 143613 525
997647 219651 525
896355 109705 525
895019 838084 445
963656 424519 525
941891 315492 525
96897 875260 525
255088 202894 443
956679 404327 525
615249 371224 470
805073 607799 509
901159 315128 525
715920 166543 509
416375 156529 449
490941 930004 525
459205 5496 449
664558 388019 509
72573 367004 443
104424 51339 351
353268 961826 525
667716 725854 504
535230 828435 509
355169 893867 525
880475 287552 525
613224 731536 509
529312 736163 509
713023 820736 468
773675 439362 509
970823 282413 525
21669 149621 375
887209 60040 525
677345 375513 509
746671 72865 509
38898 155395 375
784183 93436 509
775128 65688 509
510806 40313 449
6672 446035 449
169864 762808 509
503329 370172 449
586867 129209 470
627897 959433 525
364148 492415 449
552906 965090 525
661059 94065 509
122742 591620 470
353834 469564 449
987947 824157 525
664068 287449 509
722182 164256 509
887016 717871 525
929095 951535 507
324148 19068 443
93017 479158 449
808685 48277 509
502422 947504 525
980159 529391 525
190561 227226 386
790809 606091 509
964055 762162 525
6729 45049 324
78396 823961 509
551867 396082 470
387906 477673 449
930807 293926 525
486770 968091 525
782690 927216 525
983026 383771 525
703259 784099 504
726390 738166 424
472242 933694 525
89410 195954 383
840130 424951 525
684551 559623 509
224553 693744 509
964155 649705 525
40649 22242 324
583104 456070 470
863416 611409 525
477810 108273 449
364995 183431 443
932216 387510 525
863846 31975 525
775314 551358 509
24104 486391 449
833921 788542 468
930482 544426 525
781218 803712 468
775433 92408 509
702529 416371 509
878795 73021 525
625468 208895 470
108507 167359 383
307122 289401 371
245740 94691 443
866107 239823 525
390643 239441 441
391955 924224 525
106780 831071 509
983799 79200 525
677739 609256 509
443699 265857 449
684587 21042 509
56701 666463 509
77318 260447 443
982554 41961 525
316708 888113 525
679598 525619 509
135132 664205 509
655469 263477 509
185633 629066 509
525240 355381 470
84656 948278 525
509564 727969 509
973544 703985 525
472050 87714 449
729351 504020 509
34651 690521 509
418527 577047 470
2276 143775 375
387808 919465 525
703087 893873 525
590637 43228 470
949622 74141 525
436938 379426 449
554851 849831 525
475153 910128 525
910933 343871 525
917206 669946 525
684111 355653 509
880776 416328 525
969093 179568 525
910689 398568 525
948897 680452 525
12800 889825 525
358276 924045 525
783199 364198 509
34092 985935 525
391544 565730 470
644573 365083 509
649137 657067 429
716797 343653 509
