595429 625398 447
503344 675696 509
44412 717085 509
94645 98047 328
395617 585655 470
478949 155440 449
481667 939163 525
885430 357743 525
368753 966673 525
375672 584886 470
590712 213297 470
731943 215049 509
156712 314918 443
18063 60807 340
623296 394063 470
960940 993399 458
306810 730864 509
644635 557262 509
217885 164316 386
899306 701348 525
981064 981031 197
536290 817094 509
771446 661654 504
435161 300808 449
570402 969696 525
770645 812454 468
101241 435182 449
714787 523335 509
46684 578858 470
206632 342650 443
45224 121218 354
495886 784519 509
600123 963034 525
992173 53558 525
137704 691967 509
476091 231918 449
748258 350871 509
512847 184527 470
216068 546834 470
516752 761918 509
655982 830107 504
859987 55621 525
897628 274688 525
137485 422758 449
664518 251961 509
964576 218138 525
432950 993905 525
177537 862400 525
8141 440811 449
775042 115820 509
485950 903336 525
403953 950005 525
606658 508322 470
416425 753282 509
27615 447599 449
571292 371227 470
37294 164042 383
544511 984212 525
414185 133209 449
863582 735609 525
365191 20857 443
650057 283295 509
311088 836163 509
730965 129214 509
25645 442851 449
410559 773557 509
94007 247722 443
121840 991750 525
535097 52510 470
351293 315884 441
748255 733392 424
355939 79806 443
285805 743501 509
498661 997638 525
10303 551470 470
719075 195407 509
378286 506874 449
758976 368639 509
227681 480553 449
69279 142953 375
790939 408456 509
86521 402234 443
790684 771353 437
925484 258632 525
197100 749054 509
659814 318272 509
69280 538447 470
167317 98939 383
501605 760241 509
450430 202582 449
136232 236675 443
656712 605359 509
2606 860491 525
858836 116339 525
34127 337516 443
860458 412548 525
69907 785030 509
189801 367128 443
457621 30137 449
144170 458794 449
522875 780212 509
461681 567199 470
881847 511031 525
989030 351464 525
421474 331048 449
489222 586301 470
568685 997037 525
824096 902130 525
845936 333709 525
756170 641170 504
735920 124173 509
201783 459425 449
252520 30218 443
575355 382068 470
52255 415780 449
13208 127559 354
274148 253053 407
981229 794023 525
379738 416220 449
397362 771817 509
436012 699707 509
32068 781220 509
278220 190240 443
414504 277213 449
996709 196455 525
679880 978804 525
847533 675491 525
873075 31672 525
452546 584014 470
192218 13499 383
478115 763976 509
149040 370259 443
832102 766974 468
136195 540131 470
178165 614512 470
174135 198817 365
768006 261122 509
516843 344046 470
865810 751737 525
77095 851841 525
345140 921810 525
667448 385678 509
28785 195722 383
130620 109784 349
797168 440579 509
47640 806015 509
138130 511540 449
516041 290648 470
827131 311323 509
989838 120608 525
282231 922536 525
134057 406695 443
800663 722385 468
178733 502430 449
389343 879715 525
275148 710205 509
864802 287732 525
633413 143410 509
67628 954175 525
279644 799159 509
687683 165464 509
447640 594041 470
651807 625318 509
744694 305265 509
993448 646730 525
772087 150333 509
905729 840264 445
528036 475616 470
93352 269355 443
195769 51984 383
818807 781592 468
832778 59806 509
292341 692974 509
189652 411886 449
241209 547401 470
503244 537018 470
495048 329100 449
452794 272434 449
603584 111639 470
602297 868582 525
126104 588035 470
401733 618397 470
91673 140906 354
417696 985356 525
526246 824446 509
718125 21455 509
369097 645603 509
756591 472573 509
602230 78960 470
284788 776416 509
947528 236006 525
493942 521821 470
915315 48556 525
4846 607148 470
740851 372308 509
447351 236681 449
878861 269995 525
579017 533226 452
897091 276245 525
782076 856542 525
234632 619687 470
579483 989038 525
394409 607559 470
112906 858829 525
570904 447809 470
601649 859143 525
945852 792714 525
647271 761886 504
102752 774771 509
486110 820322 509
789877 370875 509
197189 187959 360
928506 660805 525
423143 668895 509
13994 876885 525
678251 54384 509
648336 652434 385
501909 621833 470
477069 653947 509
801046 61250 509
439164 865315 525
919980 39685 525
824080 967757 525
939465 947055 507
952432 488710 525
342152 380698 441
446133 550225 470
200945 904799 525
652857 776972 504
823678 611901 509
775211 800898 468
27154 463972 449
540427 657169 509
298154 962974 525
492581 6396 449
37706 253665 443
133834 657054 509
456 408533 443
426509 971537 525
787857 780991 375
57470 140613 354
692489 378558 509
324820 412532 449
270604 880660 525
133132 351682 443
289761 513765 470
589168 772646 509
950764 544614 525
876051 958815 507
872665 183972 525
788475 767746 468
518407 610622 452
178919 126952 383
293481 74788 443
148202 435793 449
255346 16915 443
392167 514146 470
240876 737634 509
814409 707776 468
296878 378366 441
564828 220490 470
247026 760938 509
514834 497939 470
385698 414474 449
340217 294772 384
139745 876901 525
