235992 126381 443
949537 171992 525
114792 277620 443
254079 811264 509
750652 924989 525
167611 227815 386
121979 866177 525
760442 913860 525
92110 709751 509
814590 266409 509
810866 692820 504
26835 987736 525
196195 199964 329
694152 184157 509
3360 712438 509
917384 28186 525
458369 523616 470
670381 610659 509
705956 255630 509
397139 332326 441
956118 478657 525
439450 729596 509
267581 121419 443
916860 240597 525
617883 906980 525
104266 726644 509
942204 788266 525
354168 456739 449
798784 56058 509
939306 472565 525
712700 951943 525
33556 338703 443
468953 886281 525
390378 684832 509
751325 322788 509
472328 268714 449
540311 281148 470
262049 698739 509
266595 788205 509
387141 471497 449
934970 700911 525
755737 373594 509
854630 471793 525
142260 198792 383
924098 647459 525
323856 921653 525
549484 95802 470
328219 866609 525
978337 681589 525
200609 580011 470
728726 960608 525
465573 160412 449
445042 495913 444
291146 809692 509
304830 21997 443
814919 260005 509
955459 795503 525
622024 492739 470
344638 930703 525
504947 961421 525
503104 834332 509
544412 398016 470
24588 595445 470
275810 276659 314
151626 839897 525
927117 161696 525
366802 195582 443
455492 985142 525
412481 917725 525
824103 276267 509
447818 899426 525
49675 38481 314
454712 273722 449
75353 99213 351
356511 709995 509
824415 892102 525
34624 512424 470
300551 261780 407
537504 425117 470
781945 849483 525
955166 314944 525
579870 464323 470
507138 358572 449
389804 651079 509
231018 185760 443
38262 920148 525
477863 811251 509
364477 334915 441
434965 223048 449
20367 686462 509
544395 704461 509
3358 859168 525
839206 680124 525
145519 126754 375
441712 994226 525
796237 204979 509
771942 956039 525
298605 262487 407
675981 851811 525
455434 768612 509
166589 661831 509
951115 667897 525
330536 995333 525
4896 449693 449
401262 46397 443
136048 860632 525
509034 736502 509
67701 502271 449
572824 653430 509
355471 981934 525
836791 365733 509
666190 178929 509
544875 575220 452
214461 185034 373
636146 137781 509
463011 209053 449
102393 10623 351
324913 909023 525
650561 857057 525
49300 747428 509
257741 490944 449
756919 643817 504
398387 825045 509
691225 513019 509
850216 111276 525
773657 758820 468
696365 423183 509
387683 120084 443
704659 751414 424
866483 417103 525
766945 224656 509
536439 448992 470
95273 579260 470
808309 396035 509
426146 639983 509
784795 465922 509
775533 639026 504
415531 219411 449
478520 640037 509
588361 701847 509
630515 305628 509
779316 50053 509
356426 125104 443
265128 901890 525
379768 786238 509
948875 977391 458
848645 671053 525
601310 391891 470
911320 361522 525
940100 424281 525
796838 295755 509
540971 922187 525
882496 917035 476
646031 726077 504
429387 145269 449
349052 430365 449
926496 616451 525
256751 236880 368
710342 605565 509
166304 238175 443
542626 845135 525
921065 350182 525
438238 869865 525
93073 461938 449
3715 343651 443
607240 360785 470
807473 228447 509
253123 435139 449
215935 439281 449
895046 658743 525
776953 661387 504
864703 455337 525
983169 721671 525
244478 235124 368
120079 777715 509
316869 871079 525
763655 299083 509
615363 287817 470
423387 11983 449
329179 668556 509
694664 773817 504
950811 841065 507
870902 307508 525
140027 800774 509
273045 264998 407
749234 399217 509
741175 993622 525
13246 205526 383
825615 613314 509
476114 884131 525
869014 544120 525
422828 212909 449
391563 556894 470
793933 756627 468
337277 758983 509
699572 356846 509
582826 49839 470
264417 395248 441
769812 407313 509
482099 315087 449
223953 666784 509
395753 375152 436
191157 18631 383
64 731279 509
884534 997762 507
252723 588572 470
441978 178676 449
785610 626558 504
937589 93418 525
9723 295280 443
226214 929916 525
902805 637711 525
85196 918209 525
943312 578173 525
795455 671494 504
947447 11555 525
199187 949410 525
73227 341154 443
779996 603817 509
513157 905875 525
715564 512529 509
181372 493976 449
984715 22849 525
946764 873187 507
85379 369586 443
364257 140416 443
662870 299300 509
426140 25542 449
155496 119132 375
88325 350149 443
882341 835755 525
858210 418002 525
866852 864362 388
316980 566388 470
271779 81571 443
325264 286003 389
43300 802619 509
630511 86235 509
82780 426092 449
274414 547030 470
363461 921204 525
