32856 551084
511799 50898
562368 904403
477197 564639
150126 445187
918023 260813
606882 782620
70687 845394
717862 499203
198489 540424
207125 117638
248662 751916
616565 537318
696419 834749
599050 267452
197481 431176
382156 281887
607201 484826
365061 883768
953304 213536
258396 66283
535000 286514
750429 723980
659092 593148
617584 641192
899103 312337
541576 124421
871557 761785
872356 919113
852013 717331
465022 683063
868279 165207
811002 31573
840449 508130
967528 707738
581125 152251
335946 850800
308293 773208
929143 124150
403482 769336
701696 459043
844643 135425
207416 642335
200212 447744
343504 497286
106369 335078
492672 524392
785405 641554
67107 265039
625472 919870
908796 80613
899877 259342
961404 554113
776014 622458
886397 597124
240233 266179
793617 917545
98367 873577
606967 856029
648183 232796
611789 100559
702337 828730
936325 352788
415000 614947
559961 466289
436712 446458
35539 105888
123958 415601
388408 495596
977636 612683
922248 717694
342371 273011
44682 23446
601795 465108
367762 366201
433726 10010
36629 336207
50539 173702
452967 823379
714548 151855
347018 534175
447199 270798
493050 960036
548539 405823
22526 953637
539344 477757
560662 366342
44961 476570
858943 493337
277880 818257
395565 926618
767963 557115
471951 97237
843307 346699
663712 200801
271252 290931
310121 45998
35553 469973
90220 35117
310861 743279
939584 376367
228151 878799
362645 539600
946121 524940
379352 173531
262790 41293
729011 347337
138559 322978
376341 343329
540141 876896
360349 883272
353825 277064
104613 774623
510756 907031
517062 238600
135799 273707
201224 134997
58469 115300
411815 262183
574794 440503
390894 610313
834371 886055
265064 49098
362920 134582
244228 257852
23602 905529
792462 748097
40072 811337
31689 281996
222006 949821
931176 79269
425488 592958
727350 734669
699417 421101
209819 14758
574966 403896
187334 510481
233283 159127
138908 979797
452730 964040
347337 491016
900652 940856
163901 168425
65509 980090
797185 173439
322227 892437
573514 707636
342030 777557
278934 199350
911308 282850
197641 881660
897832 700565
822660 710224
92220 590535
353879 669281
994910 219105
915099 192123
296710 928344
443528 145307
311249 112538
235884 506701
592261 808864
963498 821907
513602 988310
710205 729046
55931 181754
901069 183828
659594 527378
282329 205265
453676 249277
502944 966431
235727 788033
536362 989671
673536 848439
721682 32143
902865 726605
9030 299573
731541 392962
208159 550716
957439 424865
939544 527457
188407 390649
449586 792428
58849 711214
969759 499874
751294 43774
501645 708916
689503 380549
814346 649900
372467 414417
477533 159970
917284 698438
230601 483966
989333 772759
2852 809331
111551 767031
903348 478911
141211 160846
261650 594017
618677 364194
197771 107739
653305 328655
989445 714683
823740 801954
769246 681951
772954 843768
471290 597177
218340 158125
682952 357739
960724 835160
50864 115078
492396 658995
147519 61211
526124 770298
966575 677067
24763 302731
594231 788927
822399 855203
995848 635174
356430 439059
608226 225931
222368 324815
475610 209804
529688 782144
259885 9201
253386 333296
279437 995668
732341 493474
866680 877080
989293 858567
925199 126452
752439 70925
690270 716512
67401 779087
934311 292533
364873 686510
637399 301711
970360 307886
773469 317477
399631 104491
153673 40427
317895 369875
448911 534640
268481 987178
368629 261979
531211 654682
548925 875380
